{
    "performance": {
        "threads": 16
    },
    "api": {
        "etherscan": {
            "interval": 3000,
            "chunk_size": 5
        }
    },
    "scrapers": {
        "dappradar": {
            "url": "https://dappradar.com/"
        },
        "dapp": {
            "url": "https://www.dapp.com/"
        },
        "stateofthedapps": {
            "url": "https://www.stateofthedapps.com/dapps"
        },
        "urls": [
            "https://dappradar.com/",
            "https://www.dapp.com/",
            "https://www.stateofthedapps.com/dapps"
        ]
    }
}
